…
## # A tibble: 2 x 9
##   path             source date  description ep_nr hosts teaser title text 
##   <chr>            <chr>  <chr> <chr>       <int> <lis> <chr>  <chr> <lis>
## 1 data//sn-663.txt https… May … This week …   663 <lis… It's … Ultr… <tib…
## 2 data//sn-664.txt https… May … This week …   664 <lis… It's … Spec… <tib…

The text column contains a tibble with a row for everytime anyone speaks untill the other takes over. The length

df_sn[664,9][[1]][[1]]

## # A tibble: 139 x 3
##    linenr text                                                     speaker
##     <int> <chr>                                                    <chr>  
##  1      1 This is Security Now! with Steve Gibson, Episode 664, r… LEO    
##  2      2 Yay, Leo, great to be with you again, as always.         STEVE  
##  3      3 Always a pleasure.                                       LEO    
##  4      4 Yeah, we scrambled here a little bit at the end because… STEVE  
##  5      5 [Crosstalk] half an hour ago.  No, but I also figured y… LEO    
##  6      6 "Well, yeah.  Two weeks ago the news leaked through Hei… STEVE  
##  7      7 They were presumably waiting to disclose until companie… LEO    
##  8      8 Yes.  And even so, I mean, this is - what we heard was … STEVE  
##  9      9 Right.                                                   LEO    
## 10     10 I can't square that with the news of two because all we… STEVE  
## # ... with 129 more rows
…
